%!PS-Adobe-3.0 EPSF-3.0
%%Creator: cairo 1.15.10 (http://cairographics.org)
%%CreationDate: Wed Oct 12 16:11:12 2022
%%Pages: 1
%%DocumentData: Clean7Bit
%%LanguageLevel: 2
%%BoundingBox: 0 0 420 373
%%EndComments
%%BeginProlog
50 dict begin
/q { gsave } bind def
/Q { grestore } bind def
/cm { 6 array astore concat } bind def
/w { setlinewidth } bind def
/J { setlinecap } bind def
/j { setlinejoin } bind def
/M { setmiterlimit } bind def
/d { setdash } bind def
/m { moveto } bind def
/l { lineto } bind def
/c { curveto } bind def
/h { closepath } bind def
/re { exch dup neg 3 1 roll 5 3 roll moveto 0 rlineto
      0 exch rlineto 0 rlineto closepath } bind def
/S { stroke } bind def
/f { fill } bind def
/f* { eofill } bind def
/n { newpath } bind def
/W { clip } bind def
/W* { eoclip } bind def
/BT { } bind def
/ET { } bind def
/BDC { mark 3 1 roll /BDC pdfmark } bind def
/EMC { mark /EMC pdfmark } bind def
/cairo_store_point { /cairo_point_y exch def /cairo_point_x exch def } def
/Tj { show currentpoint cairo_store_point } bind def
/TJ {
  {
    dup
    type /stringtype eq
    { show } { -0.001 mul 0 cairo_font_matrix dtransform rmoveto } ifelse
  } forall
  currentpoint cairo_store_point
} bind def
/cairo_selectfont { cairo_font_matrix aload pop pop pop 0 0 6 array astore
    cairo_font exch selectfont cairo_point_x cairo_point_y moveto } bind def
/Tf { pop /cairo_font exch def /cairo_font_matrix where
      { pop cairo_selectfont } if } bind def
/Td { matrix translate cairo_font_matrix matrix concatmatrix dup
      /cairo_font_matrix exch def dup 4 get exch 5 get cairo_store_point
      /cairo_font where { pop cairo_selectfont } if } bind def
/Tm { 2 copy 8 2 roll 6 array astore /cairo_font_matrix exch def
      cairo_store_point /cairo_font where { pop cairo_selectfont } if } bind def
/g { setgray } bind def
/rg { setrgbcolor } bind def
/d1 { setcachedevice } bind def
/cairo_data_source {
  CairoDataIndex CairoData length lt
    { CairoData CairoDataIndex get /CairoDataIndex CairoDataIndex 1 add def }
    { () } ifelse
} def
/cairo_flush_ascii85_file { cairo_ascii85_file status { cairo_ascii85_file flushfile } if } def
/cairo_image { image cairo_flush_ascii85_file } def
/cairo_imagemask { imagemask cairo_flush_ascii85_file } def
%%EndProlog
%%BeginSetup
%%EndSetup
%%Page: 1 1
%%BeginPageSetup
%%PageBoundingBox: 0 0 420 373
%%EndPageSetup
q 0 0 420 373 rectclip
1 0 0 -1 0 373 cm q
Q q
209.715 0 m 93.895 0 0 93.891 0 209.715 c 0.055 272.691 28.406 332.312 
77.227 372.102 c 114.867 340.645 162.344 323.383 211.398 323.309 c 259.695
 323.359 306.492 340.078 343.891 370.641 c 391.684 330.852 419.355 271.902
 419.43 209.715 c 419.43 93.891 325.535 0 209.715 0 c h
209.715 0 m W n
q
0 0 420 373 re W n
[ 1 0 0 1 0 0 ] concat
  q
0.980392 0.686275 0.227451 rg
419.43 209.715 m 419.43 325.539 325.539 419.43 209.715 419.43 c 93.891 
419.43 0 325.539 0 209.715 c 0 93.891 93.891 0 209.715 0 c 325.539 0 419.43
 93.891 419.43 209.715 c h
419.43 209.715 m f
0.968627 0.576471 0.117647 rg
506.555 319.625 m 506.555 484.754 372.691 618.617 207.562 618.617 c 42.434
 618.617 -91.43 484.754 -91.43 319.625 c -91.43 154.496 42.434 20.633 207.562
 20.633 c 372.691 20.633 506.555 154.496 506.555 319.625 c h
506.555 319.625 m f
0.945098 0.352941 0.141176 rg
584.848 490.465 m 584.848 588.48 545.91 682.484 476.602 751.793 c 407.293
 821.102 313.289 860.039 215.273 860.039 c 117.258 860.039 23.254 821.102
 -46.055 751.793 c -115.363 682.484 -154.297 588.48 -154.297 490.465 c -154.297
 392.449 -115.363 298.445 -46.055 229.137 c 23.254 159.828 117.258 120.895
 215.273 120.895 c 313.289 120.895 407.293 159.828 476.602 229.137 c 545.91
 298.445 584.848 392.449 584.848 490.465 c h
584.848 490.465 m f
0.756863 0.152941 0.176471 rg
507.793 511.113 m 507.793 673.797 375.91 805.68 213.227 805.68 c 50.539
 805.68 -81.344 673.797 -81.344 511.113 c -81.344 348.426 50.539 216.543
 213.227 216.543 c 375.91 216.543 507.793 348.426 507.793 511.113 c h
507.793 511.113 m f
  Q
Q
Q q
0 g
220.191 67.262 m 209.25 65 227.465 79.852 215.363 76.926 c 205.305 77.789
 195.262 72.598 185.406 77.156 c 185.176 79.102 205.156 93.555 187.418 90.609
 c 178.434 93.922 163.465 88.086 157.805 92.41 c 161.605 105.344 174.09 
112.578 185.777 117.34 c 194.266 121.883 215.117 113.535 210.871 129.848
 c 211.129 175.68 210.242 221.539 211.098 267.355 c 210.789 282.074 209.969
 296.816 210.449 311.523 c 213.609 323.613 223.793 304.012 229.59 301.984
 c 239.824 292.535 250.484 283.469 258.871 272.297 c 271.273 258.023 283
 242.863 291.316 225.824 c 294.883 213.816 300.695 202.02 300.473 189.246
 c 299.336 173.023 290.832 157.461 277.914 147.531 c 266.496 142.754 278.559
 122.852 264.215 119.832 c 252.246 118.004 254.48 107.699 261.531 100.973
 c 266.898 87.434 252.211 101.953 248.16 97.234 c 248.988 88.012 256.777
 75.215 243.184 70.293 c 236.07 67.191 227.816 67.656 220.191 67.262 c h
234.156 101.449 m 248.016 104.602 228.059 117.367 229.195 105.43 c 229.043
 102.699 231.926 101.418 234.156 101.449 c h
256.461 108.68 m 255.816 110.008 255.223 111.223 256.461 108.68 c h
121.453 160.324 m 114.117 161.504 90.035 160.672 98.793 172.402 c 102.367
 178.996 117.453 188.234 111.594 194.559 c 101.617 193.633 93.578 202.191
 104.922 208.414 c 110.289 214.902 124.492 227.328 110.047 232.141 c 102.523
 242.855 122 248.559 127.184 256.277 c 147.809 274.723 168.273 293.383 189.426
 311.16 c 199.242 316.199 192.973 297.02 194.656 291.629 c 193.254 275.953
 190.703 260.332 189.836 244.625 c 188.68 233.836 187.449 222.977 182.77
 213.043 c 177.902 194.617 167.59 175.988 149.555 167.785 c 142.008 161.152
 130.93 161.059 121.453 160.324 c h
121.453 160.324 m f
Q Q
showpage
%%Trailer
end
%%EOF
